…
You can also request the same data as spatially referenced data.

``` r
x <- read_calanus(form = 'sf') |>
  print()
```

    ## Simple feature collection with 8646 features and 29 fields
    ## Geometry type: POINT
    ## Dimension:     XY
    ## Bounding box:  xmin: -68.76583 ymin: 41.2 xmax: -42 ymax: 57.53
    ## Geodetic CRS:  WGS 84
    ## # A tibble: 8,646 × 30
    ##    region transect station  year month   day time   timezone depth mesh_size
    ##  * <chr>  <chr>    <chr>   <dbl> <dbl> <dbl> <time> <chr>    <dbl>     <dbl>
    ##  1 QC     TSI      TSI3     2000    12     3 22:55  UTC        340       202
    ##  2 QC     TSI      TSI5     2000    12     3 19:17  UTC        276       202
    ##  3 QC     TSI      TSI6     2000    12     3 17:28  UTC        121       202
    ##  4 QC     TESL     TESL1    2000    12     4 14:21  UTC         38       202
    ##  5 QC     TESL     TESL2    2000    12     4 15:45  UTC        225       202
    ##  6 QC     TESL     TESL3    2000    12     4 17:26  UTC        331       202
    ##  7 QC     TESL     TESL4    2000    12     4 19:02  UTC        339       202
    ##  8 QC     TESL     TESL5    2000    12     4 20:56  UTC        341       202
    ##  9 QC     TESL     TESL6    2000    12     4 23:00  UTC        149       202
    ## 10 QC     TSI      TSI2     2000    12     4 01:07  UTC        342       202
    ## # ℹ 8,636 more rows
    ## # ℹ 20 more variables: calanus_finmarchicus_i <dbl>,
    ## #   calanus_finmarchicus_ii <dbl>, calanus_finmarchicus_iii <dbl>,
    ## #   calanus_finmarchicus_iv <dbl>, calanus_finmarchicus_v <dbl>,
    ## #   calanus_finmarchicus_vi <dbl>, calanus_glacialis_i <dbl>,
    ## #   calanus_glacialis_ii <dbl>, calanus_glacialis_iii <dbl>,
    ## #   calanus_glacialis_iv <dbl>, calanus_glacialis_v <dbl>, …
…
